Project 1
…
library(tidyverse)
library(fivethirtyeight)
library(cluster)
hate_crimes <- data.frame(hate_crimes)
immigration <- read_csv("immigration.csv")

Tidying

hate_crimes %>% pivot_longer(contains("share"), names_to = "name", 
    values_to = "value") %>% separate(name, into = c("stat", 
    "type"), sep = 6) %>% pivot_wider(names_from = type, values_from = value) %>% 
    separate(stat, into = c("stat", "remove"), sep = 5) %>% select(-remove)

## # A tibble: 51 x 14
##    state state_abbrev median_house_inc gini_index hate_crimes_per…
##    <chr> <chr>                   <int>      <dbl>            <dbl>
##  1 Alab… AL                      42278      0.472           0.126 
##  2 Alas… AK                      67629      0.422           0.144 
##  3 Ariz… AZ                      49254      0.455           0.225 
##  4 Arka… AR                      44922      0.458           0.0691
##  5 Cali… CA                      60487      0.471           0.256 
##  6 Colo… CO                      60940      0.457           0.391 
##  7 Conn… CT                      70161      0.486           0.335 
##  8 Dela… DE                      57522      0.44            0.323 
##  9 Dist… DC                      68277      0.532           1.52  
## 10 Flor… FL                      46140      0.474           0.188 
## # … with 41 more rows, and 9 more variables: avg_hatecrimes_per_100k_fbi <dbl>,
## #   stat <chr>, unemp_seas <dbl>, pop_metro <dbl>, pop_hs <dbl>,
## #   non_citizen <dbl>, white_poverty <dbl>, non_white <dbl>, vote_trump <dbl>
…
full_join() keeps information from both datasets. In this case, since both datasets contain 51 observations for each state, joining by 'state' is chosen because it is the common variable. 

Wrangling

fulldata <- fulldata %>% mutate(total_pop_in_100000 = total_pop/1e+05) %>% 
    mutate(avg_hatecrimes = avg_hatecrimes_per_100k_fbi * total_pop_in_100000)

fulldata %>% group_by(state) %>% arrange(avg_hatecrimes)

## # A tibble: 51 x 19
## # Groups:   state [51]
##    state state_abbrev median_house_inc share_unemp_seas share_pop_metro
##    <chr> <chr>                   <int>            <dbl>           <dbl>
##  1 Wyom… WY                      55690            0.04             0.31
##  2 Verm… VT                      60708            0.037            0.35
##  3 Alas… AK                      67629            0.064            0.63
##  4 Rhod… RI                      58633            0.054            1   
##  5 Dela… DE                      57522            0.049            0.9 
##  6 Iowa  IA                      57810            0.036            0.6 
##  7 Miss… MS                      35521            0.061            0.45
##  8 Arka… AR                      44922            0.052            0.69
##  9 New … NH                      73397            0.034            0.63
## 10 Sout… SD                      53053            0.035            0.51
## # … with 41 more rows, and 14 more variables: share_pop_hs <dbl>,
## #   share_non_citizen <dbl>, share_white_poverty <dbl>, gini_index <dbl>,
## #   share_non_white <dbl>, share_vote_trump <dbl>,
## #   hate_crimes_per_100k_splc <dbl>, avg_hatecrimes_per_100k_fbi <dbl>,
## #   total_pop <dbl>, immigrant_pop <dbl>, share_total_pop <dbl>,
## #   share_labor_force <dbl>, total_pop_in_100000 <dbl>, avg_hatecrimes <dbl>
…
